{
	"info": {
		"_postman_id": "4d94aa4e-8fec-4252-a556-f8953c3911a7",
		"name": "myMockServer",
		"schema": "https://schema.getpostman.com/json/collection/v2.1.0/collection.json",
		"_exporter_id": "24877368"
	},
	"item": [
		{
			"name": "user",
			"protocolProfileBehavior": {
				"disableBodyPruning": true
			},
			"request": {
				"method": "GET",
				"header": [],
				"body": {
					"mode": "raw",
					"raw": ""
				},
				"url": {
					"raw": "{{url}}/user",
					"host": [
						"{{url}}"
					],
					"path": [
						"user"
					]
				}
			},
			"response": [
				{
					"name": "Default",
					"originalRequest": {
						"method": "GET",
						"header": [],
						"url": {
							"raw": "{{url}}/user",
							"host": [
								"{{url}}"
							],
							"path": [
								"user"
							]
						}
					},
					"code": 200,
					"_postman_previewlanguage": "json",
					"header": [
						{
							"key": "Content-Type",
							"value": "application/json",
							"name": "Content-Type",
							"description": "",
							"type": "text"
						}
					],
					"cookie": [],
					"body": "[\r\n    {\r\n        \"id\": 1,\r\n        \"firstName\": \"Joshua\",\r\n        \"lastName\": \"Andrean\",\r\n        \"dob\": \"29-11-1997\"\r\n    },\r\n    {\r\n        \"id\": 2,\r\n        \"firstName\": \"John\",\r\n        \"lastName\": \"Doe\",\r\n        \"dob\": \"30-1-1989\"\r\n    }\r\n]"
				}
			]
		},
		{
			"name": "user/:id",
			"request": {
				"method": "GET",
				"header": [],
				"url": {
					"raw": "{{url}}/user/:id",
					"host": [
						"{{url}}"
					],
					"path": [
						"user",
						":id"
					],
					"variable": [
						{
							"key": "id",
							"value": "1"
						}
					]
				}
			},
			"response": [
				{
					"name": "Default",
					"originalRequest": {
						"method": "GET",
						"header": [],
						"body": {
							"mode": "raw",
							"raw": ""
						},
						"url": {
							"raw": "{{url}}/user/:id",
							"host": [
								"{{url}}"
							],
							"path": [
								"user",
								":id"
							],
							"variable": [
								{
									"key": "id",
									"value": "1"
								}
							]
						}
					},
					"code": 200,
					"_postman_previewlanguage": "json",
					"header": [
						{
							"key": "Content-Type",
							"value": "application/json",
							"name": "Content-Type",
							"description": "",
							"type": "text"
						}
					],
					"cookie": [],
					"body": "{\r\n        \"id\": 1,\r\n        \"firstName\": \"Joshua\",\r\n        \"lastName\": \"Andrean\",\r\n        \"dob\": \"29-11-1997\"\r\n}"
				},
				{
					"name": "get user out of bound",
					"originalRequest": {
						"method": "GET",
						"header": [],
						"url": {
							"raw": "{{url}}/user/:id",
							"host": [
								"{{url}}"
							],
							"path": [
								"user",
								":id"
							],
							"variable": [
								{
									"key": "id",
									"value": "4"
								}
							]
						}
					},
					"status": "Not Found",
					"code": 404,
					"_postman_previewlanguage": "json",
					"header": [
						{
							"key": "Content-Type",
							"value": "application/json",
							"name": "Content-Type",
							"description": "",
							"type": "text"
						}
					],
					"cookie": [],
					"body": "{\r\n    \"error\": \"User not found/Data does not exists yet\"\r\n}"
				}
			]
		},
		{
			"name": "user",
			"request": {
				"method": "POST",
				"header": [],
				"body": {
					"mode": "raw",
					"raw": ""
				},
				"url": {
					"raw": "{{url}}/user",
					"host": [
						"{{url}}"
					],
					"path": [
						"user"
					]
				}
			},
			"response": [
				{
					"name": "Default",
					"originalRequest": {
						"method": "POST",
						"header": [
							{
								"key": "Content-Type",
								"name": "Content-Type",
								"value": "application/json",
								"type": "text"
							}
						],
						"body": {
							"mode": "raw",
							"raw": "{\r\n    \"firstName\": \"Andrean\",\r\n    \"lastName\": \"Raphael\",\r\n    \"dob\": \"28-11-1997\"\r\n}",
							"options": {
								"raw": {
									"language": "json"
								}
							}
						},
						"url": {
							"raw": "{{url}}/user",
							"host": [
								"{{url}}"
							],
							"path": [
								"user"
							]
						}
					},
					"code": 201,
					"_postman_previewlanguage": "json",
					"header": [
						{
							"key": "Content-Type",
							"value": "application/json",
							"name": "Content-Type",
							"description": "",
							"type": "text"
						}
					],
					"cookie": [],
					"body": "{\r\n    \"id\": 3,\r\n    \"firstName\": \"Andrean\",\r\n    \"lastName\": \"Raphael\",\r\n    \"dob\": \"28-11-1997\"\r\n}"
				}
			]
		}
	],
	"variable": [
		{
			"key": "url",
			"value": "https://8e960821-041d-4706-8fb3-cd5ed895c882.mock.pstmn.io"
		}
	]
}